<svg version="1.2" xmlns="http://www.w3.org/2000/svg" viewBox="0 0 47 47" width="47" height="47">
	<title>uixzone</title>
	<defs>
		<clipPath clipPathUnits="userSpaceOnUse" id="cp1">
			<path d="m-249-29h1920v5268h-1920z"/>
		</clipPath>
	</defs>
	<style>
		.s0 { fill: #ff9c00;stroke: #ff9c00 } 
	</style>
	<g id="uixzone" clip-path="url(#cp1)">
		<g id="Header">
			<g id="Logo">
				<g id="-e-rotation (1)">
					<path id="Path 2" class="s0" d="m22 46c-7.8 0-12.5-11.4-12.5-22.5 0-7.3 3-22.5 12.5-22.5 4.4 0 8.3 3.9 10.5 10.5 0.2 0.5-0.1 1.1-0.6 1.2-0.6 0.2-1.2-0.1-1.3-0.6-2-5.7-5.2-9.2-8.6-9.2-7.1 0-10.4 12.3-10.4 20.6 0 11.2 4.7 20.6 10.4 20.6 3.2 0 6.5-3.3 8.4-8.7 0.1-0.4 0.5-0.6 1-0.6 0.5 0 1 0.4 1 0.9q0 0.2-0.1 0.4c-2.2 6.2-6.1 9.9-10.3 9.9z"/>
					<path id="Path 3" class="s0" d="m30 14.6q-0.5 0-0.8-0.3l-4.1-4.1c-0.4-0.4-0.4-1.1 0-1.5 0.4-0.4 1-0.4 1.4 0l3.3 3.3 2.4-3.2c0.4-0.5 1-0.6 1.5-0.2 0.5 0.3 0.6 1 0.2 1.4l-3.1 4.2c-0.2 0.2-0.5 0.4-0.8 0.4q0 0 0 0z"/>
					<path id="Path 4" class="s0" d="m23.5 37.9c-11.1 0-22.5-4.6-22.5-12.4 0-4.3 3.7-8.2 10-10.4 0.5-0.2 1 0.1 1.2 0.6 0.1 0.6-0.1 1.2-0.6 1.4-5.5 1.9-8.7 5.1-8.7 8.4 0 6.2 10.6 10.4 20.6 10.4 8.3 0 20.6-3.3 20.6-10.4 0-3.5-3.6-6.8-9.5-8.7-0.5-0.2-0.8-0.8-0.6-1.3 0.1-0.6 0.6-0.9 1.1-0.7 6.8 2.2 10.9 6.2 10.9 10.7 0 9.4-15.2 12.4-22.5 12.4z"/>
					<path id="Path 5" class="s0" d="m37.6 22.7q-0.4 0-0.8-0.3l-4.1-4.2c-0.2-0.2-0.3-0.5-0.3-0.8 0-0.3 0.2-0.6 0.4-0.7l4.2-3.2c0.4-0.3 1.1-0.2 1.4 0.3 0.4 0.4 0.3 1.1-0.2 1.4l-3.2 2.4 3.3 3.3c0.4 0.4 0.4 1.1 0 1.5-0.2 0.2-0.5 0.3-0.7 0.3z"/>
					<path id="Path 6" fill-rule="evenodd" class="s0" d="m23.5 31.8c-4.6 0-8.3-3.7-8.3-8.3 0-4.6 3.7-8.3 8.3-8.3 4.6 0 8.3 3.7 8.3 8.3 0 4.6-3.7 8.3-8.3 8.3zm0-14.5c-3.4 0-6.2 2.8-6.2 6.2 0 3.4 2.8 6.2 6.2 6.2 3.4 0 6.2-2.8 6.2-6.2 0-3.4-2.8-6.2-6.2-6.2z"/>
					<path id="Path 7" class="s0" d="m23.5 25.6c-1.1 0-2.1-1-2.1-2.1 0-1.1 1-2.1 2.1-2.1 1.1 0 2.1 1 2.1 2.1 0 1.1-1 2.1-2.1 2.1z"/>
				</g>
			</g>
		</g>
	</g>
</svg>